%YAML 1.1
%TAG !u! tag:unity3d.com,2011:
--- !u!114 &11400000
MonoBehaviour:
  m_ObjectHideFlags: 0
  m_PrefabParentObject: {fileID: 0}
  m_PrefabInternal: {fileID: 0}
  m_GameObject: {fileID: 0}
  m_Enabled: 1
  m_EditorHideFlags: 0
  m_Script: {fileID: 11500000, guid: 99979c5856e504ec1bc3c54ff64a3a93, type: 3}
  m_Name: Patrol Scanner
  m_EditorClassIdentifier: 
  actions:
  - {fileID: 11400000, guid: 910f2ad803df343feac68a8fce8ed0b3, type: 2}
  transitions:
  - decision: {fileID: 11400000, guid: da5606c2e482d4a7587c26aa05e3c2ad, type: 2}
    TrueState: {fileID: 11400000, guid: b2eff35a3b69840628b8d399bdfac2ec, type: 2}
    FalseState: {fileID: 11400000, guid: 1b2b6e37ccf01460aa9a43a76f1d0037, type: 2}
  SceneGizmoColor: {r: 0.28144264, g: 1, b: 0, a: 1}
